\relax 
\providecommand\hyper@newdestlabel[2]{}
\providecommand\HyperFirstAtBeginDocument{\AtBeginDocument}
\HyperFirstAtBeginDocument{\ifx\hyper@anchor\@undefined
\global\let\oldcontentsline\contentsline
\gdef\contentsline#1#2#3#4{\oldcontentsline{#1}{#2}{#3}}
\global\let\oldnewlabel\newlabel
\gdef\newlabel#1#2{\newlabelxx{#1}#2}
\gdef\newlabelxx#1#2#3#4#5#6{\oldnewlabel{#1}{{#2}{#3}}}
\AtEndDocument{\ifx\hyper@anchor\@undefined
\let\contentsline\oldcontentsline
\let\newlabel\oldnewlabel
\fi}
\fi}
\global\let\hyper@last\relax 
\gdef\HyperFirstAtBeginDocument#1{#1}
\providecommand\HyField@AuxAddToFields[1]{}
\providecommand\HyField@AuxAddToCoFields[2]{}
\@writefile{toc}{\contentsline {section}{\numberline {1}Introduction}{3}{section.1}}
\citation{SH_T:1,LWK:2}
\citation{SH_T:1}
\@writefile{toc}{\contentsline {section}{\numberline {2}Linear algorithms: PCA and CCA}{5}{section.2}}
\@writefile{toc}{\contentsline {subsection}{\numberline {2.1}Principal Component Analysis}{5}{subsection.2.1}}
\citation{B_PRML:4}
\@writefile{lol}{\contentsline {lstlisting}{../mypca.py}{7}{lstlisting.-1}}
\citation{PCA_EXMPL1:6}
\@writefile{toc}{\contentsline {subsection}{\numberline {2.2}Canonical Correlation Analysis}{9}{subsection.2.2}}
\citation{SH_T:1}
\citation{CCA_TUT:5}
\@writefile{lol}{\contentsline {lstlisting}{../mycca.py}{12}{lstlisting.-2}}
\citation{SH_T:1}
\citation{LWK:2}
\@writefile{toc}{\contentsline {section}{\numberline {3}Kernels and Kernelised Algorithms: KPCA and KCCA}{14}{section.3}}
\@writefile{toc}{\contentsline {subsection}{\numberline {3.1}Kernels}{14}{subsection.3.1}}
\@writefile{toc}{\contentsline {subsubsection}{\numberline {3.1.1}Motivation}{14}{subsubsection.3.1.1}}
\citation{SVM_SC:7}
\@writefile{lof}{\contentsline {figure}{\numberline {1}{\ignorespaces Kernel Algorithm Principle}}{15}{figure.caption.4}}
\@writefile{toc}{\contentsline {subsubsection}{\numberline {3.1.2}Definition and Characterisations of Kernels}{15}{subsubsection.3.1.2}}
\citation{K_FA:3}
\citation{K_FA:3}
\citation{K_ANA:8}
\citation{SH_T:1}
\@writefile{toc}{\contentsline {subsubsection}{\numberline {3.1.3}Kernel Construction and Examples}{22}{subsubsection.3.1.3}}
\citation{LWK:2}
\citation{SVLNG:9}
\citation{SH_T:1}
\citation{LWK:2}
\citation{SH_T:1}
\@writefile{toc}{\contentsline {subsection}{\numberline {3.2}Kernel PCA}{24}{subsection.3.2}}
\@writefile{lol}{\contentsline {lstlisting}{../mykpca.py}{26}{lstlisting.-3}}
\citation{PCA_EXMPL1:6}
\citation{SH_T:1}
\@writefile{toc}{\contentsline {subsection}{\numberline {3.3}Kernel CCA}{27}{subsection.3.3}}
\@writefile{lol}{\contentsline {lstlisting}{../mykcca.py}{29}{lstlisting.-4}}
\citation{GEOKCCA:10}
\citation{Exmpl_PCA:11}
\citation{Exmpl_PCA:11}
\@writefile{toc}{\contentsline {section}{\numberline {4}Applications}{31}{section.4}}
\@writefile{toc}{\contentsline {subsection}{\numberline {4.1}Data Visualisation}{31}{subsection.4.1}}
\@writefile{lof}{\contentsline {figure}{\numberline {2}{\ignorespaces An Iris flower.  Source: \cite  {Exmpl_PCA:11}\relax }}{31}{figure.caption.7}}
\citation{LWK:2}
\@writefile{toc}{\contentsline {subsection}{\numberline {4.2}Data Preprocessing}{32}{subsection.4.2}}
\@writefile{lof}{\contentsline {figure}{\numberline {3}{\ignorespaces A sample image from the MNIST database.\relax }}{32}{figure.caption.9}}
\citation{SH_T:1,LWK:2,SVM_SC:7}
\citation{Bickley_klus:12}
\@writefile{lof}{\contentsline {figure}{\numberline {4}{\ignorespaces Direct application of SVM vs. KPCA + SVM. FD stands for full-dimensional and LD for lower-dimensional\relax }}{33}{figure.caption.10}}
\citation{Bickley_klus:12}
\@writefile{lof}{\contentsline {figure}{\numberline {5}{\ignorespaces Some eigenfunctions obtained by applying KCCA to the Bickley jet example. A k-means clustering algorithm then clusters the two-dimensional points according to the values of the eigenfunctions.\relax }}{34}{figure.caption.12}}
\@writefile{toc}{\contentsline {section}{\numberline {5}Appendix}{35}{section.5}}
\@writefile{toc}{\contentsline {subsection}{\numberline {5.1}Auxiliary Python Code}{35}{subsection.5.1}}
\@writefile{lol}{\contentsline {lstlisting}{../mycentre.py}{35}{lstlisting.-5}}
\@writefile{lol}{\contentsline {lstlisting}{../mysort.py}{35}{lstlisting.-6}}
\@writefile{toc}{\contentsline {subsection}{\numberline {5.2}Link to Repository}{35}{subsection.5.2}}
\bibdata{refs}
\bibcite{SH_T:1}{1}
\bibcite{LWK:2}{2}
\bibcite{B_PRML:4}{3}
\bibcite{PCA_EXMPL1:6}{4}
\bibcite{CCA_TUT:5}{5}
\bibcite{SVM_SC:7}{6}
\bibcite{K_FA:3}{7}
\bibcite{K_ANA:8}{8}
\bibcite{SVLNG:9}{9}
\bibcite{GEOKCCA:10}{10}
\bibcite{Exmpl_PCA:11}{11}
\bibcite{Bickley_klus:12}{12}
\bibstyle{ieeetr}
